[
  {
    "name": {
      "la": "Cygnus olor",
      "fi": "Kyhmyjoutsen",
      "sv": "Kn\u00f6lsvan",
      "en": "Mute Swan"
    },
    "url": "http:\/\/atlas3.lintuatlas.fi\/0\/lajikuvat\/200\/Cygnus%20olor.jpg"
  },
  {
    "name": {
      "la": "Cygnus cygnus",
      "fi": "Laulujoutsen",
      "sv": "S\u00e5ngsvan",
      "en": "Whooper Swan"
    },
    "url": "http:\/\/atlas3.lintuatlas.fi\/0\/lajikuvat\/200\/Cygnus%20cygnus.jpg"
  },
  {
    "name": {
      "la": "Anser fabalis",
      "fi": "Mets\u00e4hanhi",
      "sv": "S\u00e4dg\u00e5s",
      "en": "Bean Goose"
    },
    "url": "http:\/\/atlas3.lintuatlas.fi\/0\/lajikuvat\/200\/Anser%20fabalis.jpg"
  },
  {
    "name": {
      "la": "Anser anser",
      "fi": "Merihanhi",
      "sv": "Gr\u00e5g\u00e5s",
      "en": "Greylag Goose"
    },
    "url": "http:\/\/atlas3.lintuatlas.fi\/0\/lajikuvat\/200\/Anser%20anser.jpg"
  },
  {
    "name": {
      "la": "Anser caerulescens",
      "fi": "Lumihanhi",
      "sv": "Sn\u00f6g\u00e5s",
      "en": "Snow Goose"
    },
    "url": "http:\/\/atlas3.lintuatlas.fi\/0\/lajikuvat\/200\/Anser%20caerulescens.jpg"
  },
  {
    "name": {
      "la": "Anser indicus",
      "fi": "Tiibetinhanhi",
      "sv": "Stripg\u00e5s",
      "en": "Bar-headed Goose"
    },
    "url": "http:\/\/atlas3.lintuatlas.fi\/0\/lajikuvat\/200\/Anser%20indicus.jpg"
  },
  {
    "name": {
      "la": "Branta canadensis",
      "fi": "Kanadanhanhi",
      "sv": "Kanadag\u00e5s",
      "en": "Canada Goose"
    },
    "url": "http:\/\/atlas3.lintuatlas.fi\/0\/lajikuvat\/200\/Branta%20canadensis.jpg"
  },
  {
    "name": {
      "la": "Branta leucopsis",
      "fi": "Valkoposkihanhi",
      "sv": "Vitkindad g\u00e5s",
      "en": "Barnacle Goose"
    },
    "url": "http:\/\/atlas3.lintuatlas.fi\/0\/lajikuvat\/200\/Branta%20leucopsis.jpg"
  },
  {
    "name": {
      "la": "Tadorna tadorna",
      "fi": "Ristisorsa",
      "sv": "Gravand",
      "en": "Shelduck"
    },
    "url": "http:\/\/atlas3.lintuatlas.fi\/0\/lajikuvat\/200\/Tadorna%20tadorna.jpg"
  },
  {
    "name": {
      "la": "Anas penelope",
      "fi": "Haapana",
      "sv": "Bl\u00e4sand",
      "en": "Wigeon"
    },
    "url": "http:\/\/atlas3.lintuatlas.fi\/0\/lajikuvat\/200\/Anas%20penelope.jpg"
  },
  {
    "name": {
      "la": "Anas strepera",
      "fi": "Harmaasorsa",
      "sv": "Snatterand",
      "en": "Gadwall"
    },
    "url": "http:\/\/atlas3.lintuatlas.fi\/0\/lajikuvat\/200\/Anas%20strepera.jpg"
  },
  {
    "name": {
      "la": "Anas crecca",
      "fi": "Tavi",
      "sv": "Kricka",
      "en": "Teal"
    },
    "url": "http:\/\/atlas3.lintuatlas.fi\/0\/lajikuvat\/200\/Anas%20crecca.jpg"
  },
  {
    "name": {
      "la": "Anas platyrhynchos",
      "fi": "Sinisorsa",
      "sv": "Gr\u00e4sand",
      "en": "Mallard"
    },
    "url": "http:\/\/atlas3.lintuatlas.fi\/0\/lajikuvat\/200\/Anas%20platyrhynchos.jpg"
  },
  {
    "name": {
      "la": "Anas acuta",
      "fi": "Jouhisorsa",
      "sv": "Stj\u00e4rtand",
      "en": "Pintail"
    },
    "url": "http:\/\/atlas3.lintuatlas.fi\/0\/lajikuvat\/200\/Anas%20acuta.jpg"
  },
  {
    "name": {
      "la": "Anas querquedula",
      "fi": "Hein\u00e4tavi",
      "sv": "\u00c5rta",
      "en": "Garganey"
    },
    "url": "http:\/\/atlas3.lintuatlas.fi\/0\/lajikuvat\/200\/Anas%20querquedula.jpg"
  },
  {
    "name": {
      "la": "Anas clypeata",
      "fi": "Lapasorsa",
      "sv": "Skedand",
      "en": "Shoveler"
    },
    "url": "http:\/\/atlas3.lintuatlas.fi\/0\/lajikuvat\/200\/Anas%20clypeata.jpg"
  },
  {
    "name": {
      "la": "Aythya ferina",
      "fi": "Punasotka",
      "sv": "Brunand",
      "en": "Pochard"
    },
    "url": "http:\/\/atlas3.lintuatlas.fi\/0\/lajikuvat\/200\/Aythya%20ferina.jpg"
  },
  {
    "name": {
      "la": "Aythya fuligula",
      "fi": "Tukkasotka",
      "sv": "Vigg",
      "en": "Tufted Duck"
    },
    "url": "http:\/\/atlas3.lintuatlas.fi\/0\/lajikuvat\/200\/Aythya%20fuligula.jpg"
  },
  {
    "name": {
      "la": "Aythya marila",
      "fi": "Lapasotka",
      "sv": "Bergand",
      "en": "Scaup"
    },
    "url": "http:\/\/atlas3.lintuatlas.fi\/0\/lajikuvat\/200\/Aythya%20marila.jpg"
  },
  {
    "name": {
      "la": "Somateria mollissima",
      "fi": "Haahka",
      "sv": "Ejder",
      "en": "Eider"
    },
    "url": "http:\/\/atlas3.lintuatlas.fi\/0\/lajikuvat\/200\/Somateria%20mollissima.jpg"
  },
  {
    "name": {
      "la": "Clangula hyemalis",
      "fi": "Alli",
      "sv": "Alf\u00e5gel",
      "en": "Long-tailed Duck"
    },
    "url": "http:\/\/atlas3.lintuatlas.fi\/0\/lajikuvat\/200\/Clangula%20hyemalis.jpg"
  },
  {
    "name": {
      "la": "Melanitta nigra",
      "fi": "Mustalintu",
      "sv": "Sj\u00f6orre",
      "en": "Common Scoter"
    },
    "url": "http:\/\/atlas3.lintuatlas.fi\/0\/lajikuvat\/200\/Melanitta%20nigra.jpg"
  },
  {
    "name": {
      "la": "Melanitta fusca",
      "fi": "Pilkkasiipi",
      "sv": "Sv\u00e4rta",
      "en": "Velvet Scoter"
    },
    "url": "http:\/\/atlas3.lintuatlas.fi\/0\/lajikuvat\/200\/Melanitta%20fusca.jpg"
  },
  {
    "name": {
      "la": "Bucephala clangula",
      "fi": "Telkk\u00e4",
      "sv": "Knipa",
      "en": "Goldeneye"
    },
    "url": "http:\/\/atlas3.lintuatlas.fi\/0\/lajikuvat\/200\/Bucephala%20clangula.jpg"
  },
  {
    "name": {
      "la": "Mergellus albellus",
      "fi": "Uivelo",
      "sv": "Salskrake",
      "en": "Smew"
    },
    "url": "http:\/\/atlas3.lintuatlas.fi\/0\/lajikuvat\/200\/Mergellus%20albellus.jpg"
  },
  {
    "name": {
      "la": "Mergus serrator",
      "fi": "Tukkakoskelo",
      "sv": "Sm\u00e5skrake",
      "en": "Red-breasted Merganser"
    },
    "url": "http:\/\/atlas3.lintuatlas.fi\/0\/lajikuvat\/200\/Mergus%20serrator.jpg"
  },
  {
    "name": {
      "la": "Mergus merganser",
      "fi": "Isokoskelo",
      "sv": "Storskrake",
      "en": "Goosander"
    },
    "url": "http:\/\/atlas3.lintuatlas.fi\/0\/lajikuvat\/200\/Mergus%20merganser.jpg"
  },
  {
    "name": {
      "la": "Bonasa bonasia",
      "fi": "Pyy",
      "sv": "J\u00e4rpe",
      "en": "Hazel Grouse"
    },
    "url": "http:\/\/atlas3.lintuatlas.fi\/0\/lajikuvat\/200\/Bonasa%20bonasia.jpg"
  },
  {
    "name": {
      "la": "Lagopus lagopus",
      "fi": "Riekko",
      "sv": "Dalripa",
      "en": "Willow Grouse"
    },
    "url": "http:\/\/atlas3.lintuatlas.fi\/0\/lajikuvat\/200\/Lagopus%20lagopus.jpg"
  },
  {
    "name": {
      "la": "Lagopus muta",
      "fi": "Kiiruna",
      "sv": "Fj\u00e4llripa",
      "en": "Ptarmigan"
    },
    "url": "http:\/\/atlas3.lintuatlas.fi\/0\/lajikuvat\/200\/Lagopus%20muta.jpg"
  },
  {
    "name": {
      "la": "Tetrao tetrix",
      "fi": "Teeri",
      "sv": "Orre",
      "en": "Black Grouse"
    },
    "url": "http:\/\/atlas3.lintuatlas.fi\/0\/lajikuvat\/200\/Tetrao%20tetrix.jpg"
  },
  {
    "name": {
      "la": "Tetrao urogallus",
      "fi": "Metso",
      "sv": "Tj\u00e4der",
      "en": "Capercaillie"
    },
    "url": "http:\/\/atlas3.lintuatlas.fi\/0\/lajikuvat\/200\/Tetrao%20urogallus.jpg"
  },
  {
    "name": {
      "la": "Perdix perdix",
      "fi": "Peltopyy",
      "sv": "Rapph\u00f6na",
      "en": "Partridge"
    },
    "url": "http:\/\/atlas3.lintuatlas.fi\/0\/lajikuvat\/200\/Perdix%20perdix.jpg"
  },
  {
    "name": {
      "la": "Coturnix coturnix",
      "fi": "Viiri\u00e4inen",
      "sv": "Vaktel",
      "en": "Quail"
    },
    "url": "http:\/\/atlas3.lintuatlas.fi\/0\/lajikuvat\/200\/Coturnix%20coturnix.jpg"
  },
  {
    "name": {
      "la": "Phasianus colchicus",
      "fi": "Fasaani",
      "sv": "Fasan",
      "en": "Pheasant"
    },
    "url": "http:\/\/atlas3.lintuatlas.fi\/0\/lajikuvat\/200\/Phasianus%20colchicus.jpg"
  },
  {
    "name": {
      "la": "Gavia stellata",
      "fi": "Kaakkuri",
      "sv": "Sm\u00e5lom",
      "en": "Red-throated Diver"
    },
    "url": "http:\/\/atlas3.lintuatlas.fi\/0\/lajikuvat\/200\/Gavia%20stellata.jpg"
  },
  {
    "name": {
      "la": "Gavia arctica",
      "fi": "Kuikka",
      "sv": "Storlom",
      "en": "Black-throated Diver"
    },
    "url": "http:\/\/atlas3.lintuatlas.fi\/0\/lajikuvat\/200\/Gavia%20arctica.jpg"
  },
  {
    "name": {
      "la": "Tachybaptus ruficollis",
      "fi": "Pikku-uikku",
      "sv": "Sm\u00e5dopping",
      "en": "Little Grebe"
    },
    "url": "http:\/\/atlas3.lintuatlas.fi\/0\/lajikuvat\/200\/Tachybaptus%20ruficollis.jpg"
  },
  {
    "name": {
      "la": "Podiceps cristatus",
      "fi": "Silkkiuikku",
      "sv": "Sk\u00e4ggdopping",
      "en": "Great Crested Grebe"
    },
    "url": "http:\/\/atlas3.lintuatlas.fi\/0\/lajikuvat\/200\/Podiceps%20cristatus.jpg"
  },
  {
    "name": {
      "la": "Podiceps grisegena",
      "fi": "H\u00e4rk\u00e4lintu",
      "sv": "Gr\u00e5hakedopping",
      "en": "Red-necked Grebe"
    },
    "url": "http:\/\/atlas3.lintuatlas.fi\/0\/lajikuvat\/200\/Podiceps%20grisegena.jpg"
  },
  {
    "name": {
      "la": "Podiceps auritus",
      "fi": "Mustakurkku-uikku",
      "sv": "Svarthakedopping",
      "en": "Slavonian Grebe"
    },
    "url": "http:\/\/atlas3.lintuatlas.fi\/0\/lajikuvat\/200\/Podiceps%20auritus.jpg"
  },
  {
    "name": {
      "la": "Phalacrocorax carbo",
      "fi": "Merimetso",
      "sv": "Storskarv",
      "en": "Great Cormorant"
    },
    "url": "http:\/\/atlas3.lintuatlas.fi\/0\/lajikuvat\/200\/Phalacrocorax%20carbo.jpg"
  },
  {
    "name": {
      "la": "Botaurus stellaris",
      "fi": "Kaulushaikara",
      "sv": "R\u00f6rdrom",
      "en": "Bittern"
    },
    "url": "http:\/\/atlas3.lintuatlas.fi\/0\/lajikuvat\/200\/Botaurus%20stellaris.jpg"
  },
  {
    "name": {
      "la": "Ardea cinerea",
      "fi": "Harmaahaikara",
      "sv": "H\u00e4ger",
      "en": "Grey Heron"
    },
    "url": "http:\/\/atlas3.lintuatlas.fi\/0\/lajikuvat\/200\/Ardea%20cinerea.jpg"
  },
  {
    "name": {
      "la": "Pernis apivorus",
      "fi": "Mehil\u00e4ishaukka",
      "sv": "Bivr\u00e5k",
      "en": "Honey Buzzard"
    },
    "url": "http:\/\/atlas3.lintuatlas.fi\/0\/lajikuvat\/200\/Pernis%20apivorus.jpg"
  },
  {
    "name": {
      "la": "Milvus migrans",
      "fi": "Haarahaukka",
      "sv": "Brunglada",
      "en": "Black Kite"
    },
    "url": "http:\/\/atlas3.lintuatlas.fi\/0\/lajikuvat\/200\/Milvus%20migrans.jpg"
  },
  {
    "name": {
      "la": "Haliaeetus albicilla",
      "fi": "Merikotka",
      "sv": "Havs\u00f6rn",
      "en": "White-tailed Eagle"
    },
    "url": "http:\/\/atlas3.lintuatlas.fi\/0\/lajikuvat\/200\/Haliaeetus%20albicilla.jpg"
  },
  {
    "name": {
      "la": "Circus aeruginosus",
      "fi": "Ruskosuohaukka",
      "sv": "Brun k\u00e4rrh\u00f6k",
      "en": "Marsh Harrier"
    },
    "url": "http:\/\/atlas3.lintuatlas.fi\/0\/lajikuvat\/200\/Circus%20aeruginosus.jpg"
  },
  {
    "name": {
      "la": "Circus cyaneus",
      "fi": "Sinisuohaukka",
      "sv": "Bl\u00e5 k\u00e4rrh\u00f6k",
      "en": "Hen Harrier"
    },
    "url": "http:\/\/atlas3.lintuatlas.fi\/0\/lajikuvat\/200\/Circus%20cyaneus.jpg"
  },
  {
    "name": {
      "la": "Circus macrourus",
      "fi": "Arosuohaukka",
      "sv": "St\u00e4pph\u00f6k",
      "en": "Pallid Harrier"
    },
    "url": "http:\/\/atlas3.lintuatlas.fi\/0\/lajikuvat\/200\/Circus%20macrourus.jpg"
  },
  {
    "name": {
      "la": "Circus pygargus",
      "fi": "Niittysuohaukka",
      "sv": "\u00c4ngsh\u00f6k",
      "en": "Montagu's Harrier"
    },
    "url": "http:\/\/atlas3.lintuatlas.fi\/0\/lajikuvat\/200\/Circus%20pygargus.jpg"
  },
  {
    "name": {
      "la": "Accipiter gentilis",
      "fi": "Kanahaukka",
      "sv": "Duvh\u00f6k",
      "en": "Goshawk"
    },
    "url": "http:\/\/atlas3.lintuatlas.fi\/0\/lajikuvat\/200\/Accipiter%20gentilis.jpg"
  },
  {
    "name": {
      "la": "Accipiter nisus",
      "fi": "Varpushaukka",
      "sv": "Sparvh\u00f6k",
      "en": "Sparrowhawk"
    },
    "url": "http:\/\/atlas3.lintuatlas.fi\/0\/lajikuvat\/200\/Accipiter%20nisus.jpg"
  },
  {
    "name": {
      "la": "Buteo buteo",
      "fi": "Hiirihaukka",
      "sv": "Ormvr\u00e5k",
      "en": "Buzzard"
    },
    "url": "http:\/\/atlas3.lintuatlas.fi\/0\/lajikuvat\/200\/Buteo%20buteo.jpg"
  },
  {
    "name": {
      "la": "Buteo lagopus",
      "fi": "Piekana",
      "sv": "Fj\u00e4llvr\u00e5k",
      "en": "Rough-legged Buzzard"
    },
    "url": "http:\/\/atlas3.lintuatlas.fi\/0\/lajikuvat\/200\/Buteo%20lagopus.jpg"
  },
  {
    "name": {
      "la": "Aquila clanga",
      "fi": "Kiljukotka",
      "sv": "St\u00f6rre skrik\u00f6rn",
      "en": "Spotted Eagle"
    },
    "url": "http:\/\/atlas3.lintuatlas.fi\/0\/lajikuvat\/200\/Aquila%20clanga.jpg"
  },
  {
    "name": {
      "la": "Aquila chrysaetos",
      "fi": "Maakotka",
      "sv": "Kungs\u00f6rn",
      "en": "Golden Eagle"
    },
    "url": "http:\/\/atlas3.lintuatlas.fi\/0\/lajikuvat\/200\/Aquila%20chrysaetos.jpg"
  },
  {
    "name": {
      "la": "Pandion haliaetus",
      "fi": "S\u00e4\u00e4ksi",
      "sv": "Fiskgjuse",
      "en": "Osprey"
    },
    "url": "http:\/\/atlas3.lintuatlas.fi\/0\/lajikuvat\/200\/Pandion%20haliaetus.jpg"
  },
  {
    "name": {
      "la": "Falco tinnunculus",
      "fi": "Tuulihaukka",
      "sv": "Tornfalk",
      "en": "Kestrel"
    },
    "url": "http:\/\/atlas3.lintuatlas.fi\/0\/lajikuvat\/200\/Falco%20tinnunculus.jpg"
  },
  {
    "name": {
      "la": "Falco vespertinus",
      "fi": "Punajalkahaukka",
      "sv": "Aftonfalk",
      "en": "Red-footed Falcon"
    },
    "url": "http:\/\/atlas3.lintuatlas.fi\/0\/lajikuvat\/200\/Falco%20vespertinus.jpg"
  },
  {
    "name": {
      "la": "Falco columbarius",
      "fi": "Ampuhaukka",
      "sv": "Stenfalk",
      "en": "Merlin"
    },
    "url": "http:\/\/atlas3.lintuatlas.fi\/0\/lajikuvat\/200\/Falco%20columbarius.jpg"
  },
  {
    "name": {
      "la": "Falco subbuteo",
      "fi": "Nuolihaukka",
      "sv": "L\u00e4rkfalk",
      "en": "Hobby"
    },
    "url": "http:\/\/atlas3.lintuatlas.fi\/0\/lajikuvat\/200\/Falco%20subbuteo.jpg"
  },
  {
    "name": {
      "la": "Falco rusticolus",
      "fi": "Tunturihaukka",
      "sv": "Jaktfalk",
      "en": "Gyrfalcon"
    },
    "url": "http:\/\/atlas3.lintuatlas.fi\/0\/lajikuvat\/200\/Falco%20rusticolus.jpg"
  },
  {
    "name": {
      "la": "Falco peregrinus",
      "fi": "Muuttohaukka",
      "sv": "Pilgrimsfalk",
      "en": "Peregrine"
    },
    "url": "http:\/\/atlas3.lintuatlas.fi\/0\/lajikuvat\/200\/Falco%20peregrinus.jpg"
  },
  {
    "name": {
      "la": "Rallus aquaticus",
      "fi": "Luhtakana",
      "sv": "Vattenrall",
      "en": "Water Rail"
    },
    "url": "http:\/\/atlas3.lintuatlas.fi\/0\/lajikuvat\/200\/Rallus%20aquaticus.jpg"
  },
  {
    "name": {
      "la": "Porzana porzana",
      "fi": "Luhtahuitti",
      "sv": "Sm\u00e5fl\u00e4ckig sumph\u00f6na",
      "en": "Spotted Crake"
    },
    "url": "http:\/\/atlas3.lintuatlas.fi\/0\/lajikuvat\/200\/Porzana%20porzana.jpg"
  },
  {
    "name": {
      "la": "Porzana parva",
      "fi": "Pikkuhuitti",
      "sv": "Mindre sumph\u00f6na",
      "en": "Little Crake"
    },
    "url": "http:\/\/atlas3.lintuatlas.fi\/0\/lajikuvat\/200\/Porzana%20parva.jpg"
  },
  {
    "name": {
      "la": "Crex crex",
      "fi": "Ruisr\u00e4\u00e4kk\u00e4",
      "sv": "Kornknarr",
      "en": "Corncrake"
    },
    "url": "http:\/\/atlas3.lintuatlas.fi\/0\/lajikuvat\/200\/Crex%20crex.jpg"
  },
  {
    "name": {
      "la": "Gallinula chloropus",
      "fi": "Liejukana",
      "sv": "R\u00f6rh\u00f6na",
      "en": "Moorhen"
    },
    "url": "http:\/\/atlas3.lintuatlas.fi\/0\/lajikuvat\/200\/Gallinula%20chloropus.jpg"
  },
  {
    "name": {
      "la": "Fulica atra",
      "fi": "Nokikana",
      "sv": "Soth\u00f6na",
      "en": "Coot"
    },
    "url": "http:\/\/atlas3.lintuatlas.fi\/0\/lajikuvat\/200\/Fulica%20atra.jpg"
  },
  {
    "name": {
      "la": "Grus grus",
      "fi": "Kurki",
      "sv": "Trana",
      "en": "Crane"
    },
    "url": "http:\/\/atlas3.lintuatlas.fi\/0\/lajikuvat\/200\/Grus%20grus.jpg"
  },
  {
    "name": {
      "la": "Haematopus ostralegus",
      "fi": "Meriharakka",
      "sv": "Strandskata",
      "en": "Oystercatcher"
    },
    "url": "http:\/\/atlas3.lintuatlas.fi\/0\/lajikuvat\/200\/Haematopus%20ostralegus.jpg"
  },
  {
    "name": {
      "la": "Charadrius dubius",
      "fi": "Pikkutylli",
      "sv": "Mindre strandpipare",
      "en": "Little Ringed Plover"
    },
    "url": "http:\/\/atlas3.lintuatlas.fi\/0\/lajikuvat\/200\/Charadrius%20dubius.jpg"
  },
  {
    "name": {
      "la": "Charadrius hiaticula",
      "fi": "Tylli",
      "sv": "St\u00f6rre strandpipare",
      "en": "Ringed Plover"
    },
    "url": "http:\/\/atlas3.lintuatlas.fi\/0\/lajikuvat\/200\/Charadrius%20hiaticula.jpg"
  },
  {
    "name": {
      "la": "Charadrius morinellus",
      "fi": "Ker\u00e4kurmitsa",
      "sv": "Fj\u00e4llpipare",
      "en": "Dotterel"
    },
    "url": "http:\/\/atlas3.lintuatlas.fi\/0\/lajikuvat\/200\/Charadrius%20morinellus.jpg"
  },
  {
    "name": {
      "la": "Pluvialis apricaria",
      "fi": "Kapustarinta",
      "sv": "Ljungpipare",
      "en": "Golden Plover"
    },
    "url": "http:\/\/atlas3.lintuatlas.fi\/0\/lajikuvat\/200\/Pluvialis%20apricaria.jpg"
  },
  {
    "name": {
      "la": "Vanellus vanellus",
      "fi": "T\u00f6yht\u00f6hyypp\u00e4",
      "sv": "Tofsvipa",
      "en": "Lapwing"
    },
    "url": "http:\/\/atlas3.lintuatlas.fi\/0\/lajikuvat\/200\/Vanellus%20vanellus.jpg"
  },
  {
    "name": {
      "la": "Calidris minuta",
      "fi": "Pikkusirri",
      "sv": "Sm\u00e5sn\u00e4ppa",
      "en": "Little Stint"
    },
    "url": "http:\/\/atlas3.lintuatlas.fi\/0\/lajikuvat\/200\/Calidris%20minuta.jpg"
  },
  {
    "name": {
      "la": "Calidris temminckii",
      "fi": "Lapinsirri",
      "sv": "Mosn\u00e4ppa",
      "en": "Temminck's Stint"
    },
    "url": "http:\/\/atlas3.lintuatlas.fi\/0\/lajikuvat\/200\/Calidris%20temminckii.jpg"
  },
  {
    "name": {
      "la": "Calidris maritima",
      "fi": "Merisirri",
      "sv": "Sk\u00e4rsn\u00e4ppa",
      "en": "Purple Sandpiper"
    },
    "url": "http:\/\/atlas3.lintuatlas.fi\/0\/lajikuvat\/200\/Calidris%20maritima.jpg"
  },
  {
    "name": {
      "la": "Calidris alpina",
      "fi": "Suosirri",
      "sv": "K\u00e4rrsn\u00e4ppa",
      "en": "Dunlin"
    },
    "url": "http:\/\/atlas3.lintuatlas.fi\/0\/lajikuvat\/200\/Calidris%20alpina.jpg"
  },
  {
    "name": {
      "la": "Limicola falcinellus",
      "fi": "J\u00e4nk\u00e4sirri\u00e4inen",
      "sv": "Myrsn\u00e4ppa",
      "en": "Broad-billed Sandpiper"
    },
    "url": "http:\/\/atlas3.lintuatlas.fi\/0\/lajikuvat\/200\/Limicola%20falcinellus.jpg"
  },
  {
    "name": {
      "la": "Philomachus pugnax",
      "fi": "Suokukko",
      "sv": "Brushane",
      "en": "Ruff"
    },
    "url": "http:\/\/atlas3.lintuatlas.fi\/0\/lajikuvat\/200\/Philomachus%20pugnax.jpg"
  },
  {
    "name": {
      "la": "Lymnocryptes minimus",
      "fi": "J\u00e4nk\u00e4kurppa",
      "sv": "Dv\u00e4rgbeckasin",
      "en": "Jack Snipe"
    },
    "url": "http:\/\/atlas3.lintuatlas.fi\/0\/lajikuvat\/200\/Lymnocryptes%20minimus.jpg"
  },
  {
    "name": {
      "la": "Gallinago gallinago",
      "fi": "Taivaanvuohi",
      "sv": "Enkelbeckasin",
      "en": "Snipe"
    },
    "url": "http:\/\/atlas3.lintuatlas.fi\/0\/lajikuvat\/200\/Gallinago%20gallinago.jpg"
  },
  {
    "name": {
      "la": "Gallinago media",
      "fi": "Hein\u00e4kurppa",
      "sv": "Dubbelbeckasin",
      "en": "Great Snipe"
    },
    "url": "http:\/\/atlas3.lintuatlas.fi\/0\/lajikuvat\/200\/Gallinago%20media.jpg"
  },
  {
    "name": {
      "la": "Scolopax rusticola",
      "fi": "Lehtokurppa",
      "sv": "Morkulla",
      "en": "Woodcock"
    },
    "url": "http:\/\/atlas3.lintuatlas.fi\/0\/lajikuvat\/200\/Scolopax%20rusticola.jpg"
  },
  {
    "name": {
      "la": "Limosa limosa",
      "fi": "Mustapyrst\u00f6kuiri",
      "sv": "R\u00f6dspov",
      "en": "Black-tailed Godwit"
    },
    "url": "http:\/\/atlas3.lintuatlas.fi\/0\/lajikuvat\/200\/Limosa%20limosa.jpg"
  },
  {
    "name": {
      "la": "Limosa lapponica",
      "fi": "Punakuiri",
      "sv": "Myrspov",
      "en": "Bar-tailed Godwit"
    },
    "url": "http:\/\/atlas3.lintuatlas.fi\/0\/lajikuvat\/200\/Limosa%20lapponica.jpg"
  },
  {
    "name": {
      "la": "Numenius phaeopus",
      "fi": "Pikkukuovi",
      "sv": "Sm\u00e5spov",
      "en": "Whimbrel"
    },
    "url": "http:\/\/atlas3.lintuatlas.fi\/0\/lajikuvat\/200\/Numenius%20phaeopus.jpg"
  },
  {
    "name": {
      "la": "Numenius arquata",
      "fi": "Kuovi",
      "sv": "Storspov",
      "en": "Curlew"
    },
    "url": "http:\/\/atlas3.lintuatlas.fi\/0\/lajikuvat\/200\/Numenius%20arquata.jpg"
  },
  {
    "name": {
      "la": "Tringa erythropus",
      "fi": "Mustaviklo",
      "sv": "Svartsn\u00e4ppa",
      "en": "Spotted Redshank"
    },
    "url": "http:\/\/atlas3.lintuatlas.fi\/0\/lajikuvat\/200\/Tringa%20erythropus.jpg"
  },
  {
    "name": {
      "la": "Tringa totanus",
      "fi": "Punajalkaviklo",
      "sv": "R\u00f6dbena",
      "en": "Redshank"
    },
    "url": "http:\/\/atlas3.lintuatlas.fi\/0\/lajikuvat\/200\/Tringa%20totanus.jpg"
  },
  {
    "name": {
      "la": "Tringa stagnatilis",
      "fi": "Lampiviklo",
      "sv": "Dammsn\u00e4ppa",
      "en": "Marsh Sandpiper"
    },
    "url": "http:\/\/atlas3.lintuatlas.fi\/0\/lajikuvat\/200\/Tringa%20stagnatilis.jpg"
  },
  {
    "name": {
      "la": "Tringa nebularia",
      "fi": "Valkoviklo",
      "sv": "Gluttsn\u00e4ppa",
      "en": "Greenshank"
    },
    "url": "http:\/\/atlas3.lintuatlas.fi\/0\/lajikuvat\/200\/Tringa%20nebularia.jpg"
  },
  {
    "name": {
      "la": "Tringa ochropus",
      "fi": "Mets\u00e4viklo",
      "sv": "Skogssn\u00e4ppa",
      "en": "Green Sandpiper"
    },
    "url": "http:\/\/atlas3.lintuatlas.fi\/0\/lajikuvat\/200\/Tringa%20ochropus.jpg"
  },
  {
    "name": {
      "la": "Tringa glareola",
      "fi": "Liro",
      "sv": "Gr\u00f6nbena",
      "en": "Wood Sandpiper"
    },
    "url": "http:\/\/atlas3.lintuatlas.fi\/0\/lajikuvat\/200\/Tringa%20glareola.jpg"
  },
  {
    "name": {
      "la": "Xenus cinereus",
      "fi": "Rantakurvi",
      "sv": "Tereksn\u00e4ppa",
      "en": "Terek Sandpiper"
    },
    "url": "http:\/\/atlas3.lintuatlas.fi\/0\/lajikuvat\/200\/Xenus%20cinereus.jpg"
  },
  {
    "name": {
      "la": "Actitis hypoleucos",
      "fi": "Rantasipi",
      "sv": "Drillsn\u00e4ppa",
      "en": "Common Sandpiper"
    },
    "url": "http:\/\/atlas3.lintuatlas.fi\/0\/lajikuvat\/200\/Actitis%20hypoleucos.jpg"
  },
  {
    "name": {
      "la": "Arenaria interpres",
      "fi": "Karikukko",
      "sv": "Roskarl",
      "en": "Turnstone"
    },
    "url": "http:\/\/atlas3.lintuatlas.fi\/0\/lajikuvat\/200\/Arenaria%20interpres.jpg"
  },
  {
    "name": {
      "la": "Phalaropus lobatus",
      "fi": "Vesip\u00e4\u00e4sky",
      "sv": "Smaln\u00e4bbad simsn\u00e4ppa",
      "en": "Red-necked Phalarope"
    },
    "url": "http:\/\/atlas3.lintuatlas.fi\/0\/lajikuvat\/200\/Phalaropus%20lobatus.jpg"
  },
  {
    "name": {
      "la": "Stercorarius parasiticus",
      "fi": "Merikihu",
      "sv": "Labb",
      "en": "Arctic Skua"
    },
    "url": "http:\/\/atlas3.lintuatlas.fi\/0\/lajikuvat\/200\/Stercorarius%20parasiticus.jpg"
  },
  {
    "name": {
      "la": "Stercorarius longicaudus",
      "fi": "Tunturikihu",
      "sv": "Fj\u00e4llabb",
      "en": "Long-tailed Skua"
    },
    "url": "http:\/\/atlas3.lintuatlas.fi\/0\/lajikuvat\/200\/Stercorarius%20longicaudus.jpg"
  },
  {
    "name": {
      "la": "Hydrocoloeus minutus",
      "fi": "Pikkulokki",
      "sv": "Dv\u00e4rgm\u00e5s",
      "en": "Little Gull"
    },
    "url": "http:\/\/atlas3.lintuatlas.fi\/0\/lajikuvat\/200\/Hydrocoloeus%20minutus.jpg"
  },
  {
    "name": {
      "la": "Larus ridibundus",
      "fi": "Naurulokki",
      "sv": "Skrattm\u00e5s",
      "en": "Black-headed Gull"
    },
    "url": "http:\/\/atlas3.lintuatlas.fi\/0\/lajikuvat\/200\/Larus%20ridibundus.jpg"
  },
  {
    "name": {
      "la": "Larus canus",
      "fi": "Kalalokki",
      "sv": "Fiskm\u00e5s",
      "en": "Common Gull"
    },
    "url": "http:\/\/atlas3.lintuatlas.fi\/0\/lajikuvat\/200\/Larus%20canus.jpg"
  },
  {
    "name": {
      "la": "Larus fuscus",
      "fi": "Selk\u00e4lokki",
      "sv": "Silltrut",
      "en": "Lesser Black-backed Gull"
    },
    "url": "http:\/\/atlas3.lintuatlas.fi\/0\/lajikuvat\/200\/Larus%20fuscus.jpg"
  },
  {
    "name": {
      "la": "Larus argentatus",
      "fi": "Harmaalokki",
      "sv": "Gr\u00e5trut",
      "en": "Herring Gull"
    },
    "url": "http:\/\/atlas3.lintuatlas.fi\/0\/lajikuvat\/200\/Larus%20argentatus.jpg"
  },
  {
    "name": {
      "la": "Larus marinus",
      "fi": "Merilokki",
      "sv": "Havstrut",
      "en": "Great Black-backed Gull"
    },
    "url": "http:\/\/atlas3.lintuatlas.fi\/0\/lajikuvat\/200\/Larus%20marinus.jpg"
  },
  {
    "name": {
      "la": "Hydroprogne caspia",
      "fi": "R\u00e4ysk\u00e4",
      "sv": "Skr\u00e4nt\u00e4rna",
      "en": "Caspian Tern"
    },
    "url": "http:\/\/atlas3.lintuatlas.fi\/0\/lajikuvat\/200\/Hydroprogne%20caspia.jpg"
  },
  {
    "name": {
      "la": "Sterna hirundo",
      "fi": "Kalatiira",
      "sv": "Fiskt\u00e4rna",
      "en": "Common Tern"
    },
    "url": "http:\/\/atlas3.lintuatlas.fi\/0\/lajikuvat\/200\/Sterna%20hirundo.jpg"
  },
  {
    "name": {
      "la": "Sterna paradisaea",
      "fi": "Lapintiira",
      "sv": "Silvert\u00e4rna",
      "en": "Arctic Tern"
    },
    "url": "http:\/\/atlas3.lintuatlas.fi\/0\/lajikuvat\/200\/Sterna%20paradisaea.jpg"
  },
  {
    "name": {
      "la": "Sternula albifrons",
      "fi": "Pikkutiira",
      "sv": "Sm\u00e5t\u00e4rna",
      "en": "Little Tern"
    },
    "url": "http:\/\/atlas3.lintuatlas.fi\/0\/lajikuvat\/200\/Sternula%20albifrons.jpg"
  },
  {
    "name": {
      "la": "Chlidonias niger",
      "fi": "Mustatiira",
      "sv": "Svartt\u00e4rna",
      "en": "Black Tern"
    },
    "url": "http:\/\/atlas3.lintuatlas.fi\/0\/lajikuvat\/200\/Chlidonias%20niger.jpg"
  },
  {
    "name": {
      "la": "Uria aalge",
      "fi": "Etel\u00e4nkiisla",
      "sv": "Sillgrissla",
      "en": "Guillemot"
    },
    "url": "http:\/\/atlas3.lintuatlas.fi\/0\/lajikuvat\/200\/Uria%20aalge.jpg"
  },
  {
    "name": {
      "la": "Alca torda",
      "fi": "Ruokki",
      "sv": "Tordmule",
      "en": "Razorbill"
    },
    "url": "http:\/\/atlas3.lintuatlas.fi\/0\/lajikuvat\/200\/Alca%20torda.jpg"
  },
  {
    "name": {
      "la": "Cepphus grylle",
      "fi": "Riskil\u00e4",
      "sv": "Tobisgrissla",
      "en": "Black Guillemot"
    },
    "url": "http:\/\/atlas3.lintuatlas.fi\/0\/lajikuvat\/200\/Cepphus%20grylle.jpg"
  },
  {
    "name": {
      "la": "Columba livia",
      "fi": "Kesykyyhky",
      "sv": "Tamduva",
      "en": "Rock Dove"
    },
    "url": "http:\/\/atlas3.lintuatlas.fi\/0\/lajikuvat\/200\/Columba%20livia.jpg"
  },
  {
    "name": {
      "la": "Columba oenas",
      "fi": "Uuttukyyhky",
      "sv": "Skogsduva",
      "en": "Stock Dove"
    },
    "url": "http:\/\/atlas3.lintuatlas.fi\/0\/lajikuvat\/200\/Columba%20oenas.jpg"
  },
  {
    "name": {
      "la": "Columba palumbus",
      "fi": "Sepelkyyhky",
      "sv": "Ringduva",
      "en": "Wood Pigeon"
    },
    "url": "http:\/\/atlas3.lintuatlas.fi\/0\/lajikuvat\/200\/Columba%20palumbus.jpg"
  },
  {
    "name": {
      "la": "Streptopelia decaocto",
      "fi": "Turkinkyyhky",
      "sv": "Turkduva",
      "en": "Collared Dove"
    },
    "url": "http:\/\/atlas3.lintuatlas.fi\/0\/lajikuvat\/200\/Streptopelia%20decaocto.jpg"
  },
  {
    "name": {
      "la": "Streptopelia turtur",
      "fi": "Turturikyyhky",
      "sv": "Turturduva",
      "en": "Turtle Dove"
    },
    "url": "http:\/\/atlas3.lintuatlas.fi\/0\/lajikuvat\/200\/Streptopelia%20turtur.jpg"
  },
  {
    "name": {
      "la": "Cuculus canorus",
      "fi": "K\u00e4ki",
      "sv": "G\u00f6k",
      "en": "Cuckoo"
    },
    "url": "http:\/\/atlas3.lintuatlas.fi\/0\/lajikuvat\/200\/Cuculus%20canorus.jpg"
  },
  {
    "name": {
      "la": "Bubo bubo",
      "fi": "Huuhkaja",
      "sv": "Berguv",
      "en": "Eagle Owl"
    },
    "url": "http:\/\/atlas3.lintuatlas.fi\/0\/lajikuvat\/200\/Bubo%20bubo.jpg"
  },
  {
    "name": {
      "la": "Bubo scandiacus",
      "fi": "Tunturip\u00f6ll\u00f6",
      "sv": "Fj\u00e4lluggla",
      "en": "Snowy Owl"
    },
    "url": "http:\/\/atlas3.lintuatlas.fi\/0\/lajikuvat\/200\/Bubo%20scandiacus.jpg"
  },
  {
    "name": {
      "la": "Surnia ulula",
      "fi": "Hiirip\u00f6ll\u00f6",
      "sv": "H\u00f6kuggla",
      "en": "Hawk Owl"
    },
    "url": "http:\/\/atlas3.lintuatlas.fi\/0\/lajikuvat\/200\/Surnia%20ulula.jpg"
  },
  {
    "name": {
      "la": "Glaucidium passerinum",
      "fi": "Varpusp\u00f6ll\u00f6",
      "sv": "Sparvuggla",
      "en": "Pygmy Owl"
    },
    "url": "http:\/\/atlas3.lintuatlas.fi\/0\/lajikuvat\/200\/Glaucidium%20passerinum.jpg"
  },
  {
    "name": {
      "la": "Strix aluco",
      "fi": "Lehtop\u00f6ll\u00f6",
      "sv": "Kattuggla",
      "en": "Tawny Owl"
    },
    "url": "http:\/\/atlas3.lintuatlas.fi\/0\/lajikuvat\/200\/Strix%20aluco.jpg"
  },
  {
    "name": {
      "la": "Strix uralensis",
      "fi": "Viirup\u00f6ll\u00f6",
      "sv": "Slaguggla",
      "en": "Ural Owl"
    },
    "url": "http:\/\/atlas3.lintuatlas.fi\/0\/lajikuvat\/200\/Strix%20uralensis.jpg"
  },
  {
    "name": {
      "la": "Strix nebulosa",
      "fi": "Lapinp\u00f6ll\u00f6",
      "sv": "Lappuggla",
      "en": "Great Grey Owl"
    },
    "url": "http:\/\/atlas3.lintuatlas.fi\/0\/lajikuvat\/200\/Strix%20nebulosa.jpg"
  },
  {
    "name": {
      "la": "Asio otus",
      "fi": "Sarvip\u00f6ll\u00f6",
      "sv": "Hornuggla",
      "en": "Long-eared Owl"
    },
    "url": "http:\/\/atlas3.lintuatlas.fi\/0\/lajikuvat\/200\/Asio%20otus.jpg"
  },
  {
    "name": {
      "la": "Asio flammeus",
      "fi": "Suop\u00f6ll\u00f6",
      "sv": "Jorduggla",
      "en": "Short-eared Owl"
    },
    "url": "http:\/\/atlas3.lintuatlas.fi\/0\/lajikuvat\/200\/Asio%20flammeus.jpg"
  },
  {
    "name": {
      "la": "Aegolius funereus",
      "fi": "Helmip\u00f6ll\u00f6",
      "sv": "P\u00e4rluggla",
      "en": "Tengmalm's Owl"
    },
    "url": "http:\/\/atlas3.lintuatlas.fi\/0\/lajikuvat\/200\/Aegolius%20funereus.jpg"
  },
  {
    "name": {
      "la": "Caprimulgus europaeus",
      "fi": "Kehr\u00e4\u00e4j\u00e4",
      "sv": "Nattsk\u00e4rra",
      "en": "Nightjar"
    },
    "url": "http:\/\/atlas3.lintuatlas.fi\/0\/lajikuvat\/200\/Caprimulgus%20europaeus.jpg"
  },
  {
    "name": {
      "la": "Apus apus",
      "fi": "Tervap\u00e4\u00e4sky",
      "sv": "Tornseglare",
      "en": "Swift"
    },
    "url": "http:\/\/atlas3.lintuatlas.fi\/0\/lajikuvat\/200\/Apus%20apus.jpg"
  },
  {
    "name": {
      "la": "Alcedo atthis",
      "fi": "Kuningaskalastaja",
      "sv": "Kungsfiskare",
      "en": "Kingfisher"
    },
    "url": "http:\/\/atlas3.lintuatlas.fi\/0\/lajikuvat\/200\/Alcedo%20atthis.jpg"
  },
  {
    "name": {
      "la": "Jynx torquilla",
      "fi": "K\u00e4enpiika",
      "sv": "G\u00f6ktyta",
      "en": "Wryneck"
    },
    "url": "http:\/\/atlas3.lintuatlas.fi\/0\/lajikuvat\/200\/Jynx%20torquilla.jpg"
  },
  {
    "name": {
      "la": "Picus canus",
      "fi": "Harmaap\u00e4\u00e4tikka",
      "sv": "Gr\u00e5spett",
      "en": "Grey-headed Woodpecker"
    },
    "url": "http:\/\/atlas3.lintuatlas.fi\/0\/lajikuvat\/200\/Picus%20canus.jpg"
  },
  {
    "name": {
      "la": "Dryocopus martius",
      "fi": "Palok\u00e4rki",
      "sv": "Spillkr\u00e5ka",
      "en": "Black Woodpecker"
    },
    "url": "http:\/\/atlas3.lintuatlas.fi\/0\/lajikuvat\/200\/Dryocopus%20martius.jpg"
  },
  {
    "name": {
      "la": "Dendrocopos major",
      "fi": "K\u00e4pytikka",
      "sv": "St\u00f6rre hackspett",
      "en": "Great Spotted Woodpecker"
    },
    "url": "http:\/\/atlas3.lintuatlas.fi\/0\/lajikuvat\/200\/Dendrocopos%20major.jpg"
  },
  {
    "name": {
      "la": "Dendrocopos leucotos",
      "fi": "Valkoselk\u00e4tikka",
      "sv": "Vitryggig hackspett",
      "en": "White-backed Woodpecker"
    },
    "url": "http:\/\/atlas3.lintuatlas.fi\/0\/lajikuvat\/200\/Dendrocopos%20leucotos.jpg"
  },
  {
    "name": {
      "la": "Dendrocopos minor",
      "fi": "Pikkutikka",
      "sv": "Mindre hackspett",
      "en": "Lesser Spotted Woodpecker"
    },
    "url": "http:\/\/atlas3.lintuatlas.fi\/0\/lajikuvat\/200\/Dendrocopos%20minor.jpg"
  },
  {
    "name": {
      "la": "Picoides tridactylus",
      "fi": "Pohjantikka",
      "sv": "Tret\u00e5ig hackspett",
      "en": "Three-toed Woodpecker"
    },
    "url": "http:\/\/atlas3.lintuatlas.fi\/0\/lajikuvat\/200\/Picoides%20tridactylus.jpg"
  },
  {
    "name": {
      "la": "Lullula arborea",
      "fi": "Kangaskiuru",
      "sv": "Tr\u00e4dl\u00e4rka",
      "en": "Woodlark"
    },
    "url": "http:\/\/atlas3.lintuatlas.fi\/0\/lajikuvat\/200\/Lullula%20arborea.jpg"
  },
  {
    "name": {
      "la": "Alauda arvensis",
      "fi": "Kiuru",
      "sv": "S\u00e5ngl\u00e4rka",
      "en": "Skylark"
    },
    "url": "http:\/\/atlas3.lintuatlas.fi\/0\/lajikuvat\/200\/Alauda%20arvensis.jpg"
  },
  {
    "name": {
      "la": "Eremophila alpestris",
      "fi": "Tunturikiuru",
      "sv": "Bergl\u00e4rka",
      "en": "Shore Lark"
    },
    "url": "http:\/\/atlas3.lintuatlas.fi\/0\/lajikuvat\/200\/Eremophila%20alpestris.jpg"
  },
  {
    "name": {
      "la": "Riparia riparia",
      "fi": "T\u00f6rm\u00e4p\u00e4\u00e4sky",
      "sv": "Backsvala",
      "en": "Sand Martin"
    },
    "url": "http:\/\/atlas3.lintuatlas.fi\/0\/lajikuvat\/200\/Riparia%20riparia.jpg"
  },
  {
    "name": {
      "la": "Hirundo rustica",
      "fi": "Haarap\u00e4\u00e4sky",
      "sv": "Ladusvala",
      "en": "Swallow"
    },
    "url": "http:\/\/atlas3.lintuatlas.fi\/0\/lajikuvat\/200\/Hirundo%20rustica.jpg"
  },
  {
    "name": {
      "la": "Delichon urbicum",
      "fi": "R\u00e4yst\u00e4sp\u00e4\u00e4sky",
      "sv": "Hussvala",
      "en": "House Martin"
    },
    "url": "http:\/\/atlas3.lintuatlas.fi\/0\/lajikuvat\/200\/Delichon%20urbicum.jpg"
  },
  {
    "name": {
      "la": "Anthus campestris",
      "fi": "Nummikirvinen",
      "sv": "F\u00e4ltpipl\u00e4rka",
      "en": "Tawny Pipit"
    },
    "url": "http:\/\/atlas3.lintuatlas.fi\/0\/lajikuvat\/200\/Anthus%20campestris.jpg"
  },
  {
    "name": {
      "la": "Anthus trivialis",
      "fi": "Mets\u00e4kirvinen",
      "sv": "Tr\u00e4dpipl\u00e4rka",
      "en": "Tree Pipit"
    },
    "url": "http:\/\/atlas3.lintuatlas.fi\/0\/lajikuvat\/200\/Anthus%20trivialis.jpg"
  },
  {
    "name": {
      "la": "Anthus pratensis",
      "fi": "Niittykirvinen",
      "sv": "\u00c4ngspipl\u00e4rka",
      "en": "Meadow Pipit"
    },
    "url": "http:\/\/atlas3.lintuatlas.fi\/0\/lajikuvat\/200\/Anthus%20pratensis.jpg"
  },
  {
    "name": {
      "la": "Anthus cervinus",
      "fi": "Lapinkirvinen",
      "sv": "R\u00f6dstrupig pipl\u00e4rka",
      "en": "Red-throated Pipit"
    },
    "url": "http:\/\/atlas3.lintuatlas.fi\/0\/lajikuvat\/200\/Anthus%20cervinus.jpg"
  },
  {
    "name": {
      "la": "Anthus petrosus",
      "fi": "Luotokirvinen",
      "sv": "Sk\u00e4rpipl\u00e4rka",
      "en": "Water Pipit"
    },
    "url": "http:\/\/atlas3.lintuatlas.fi\/0\/lajikuvat\/200\/Anthus%20petrosus.jpg"
  },
  {
    "name": {
      "la": "Motacilla flava",
      "fi": "Keltav\u00e4st\u00e4r\u00e4kki",
      "sv": "Gul\u00e4rla",
      "en": "Yellow Wagtail"
    },
    "url": "http:\/\/atlas3.lintuatlas.fi\/0\/lajikuvat\/200\/Motacilla%20flava.jpg"
  },
  {
    "name": {
      "la": "Motacilla citreola",
      "fi": "Sitruunav\u00e4st\u00e4r\u00e4kki",
      "sv": "Citron\u00e4rla",
      "en": "Citrine Wagtail"
    },
    "url": "http:\/\/atlas3.lintuatlas.fi\/0\/lajikuvat\/200\/Motacilla%20citreola.jpg"
  },
  {
    "name": {
      "la": "Motacilla cinerea",
      "fi": "Virtav\u00e4st\u00e4r\u00e4kki",
      "sv": "Fors\u00e4rla",
      "en": "Grey Wagtail"
    },
    "url": "http:\/\/atlas3.lintuatlas.fi\/0\/lajikuvat\/200\/Motacilla%20cinerea.jpg"
  },
  {
    "name": {
      "la": "Motacilla alba",
      "fi": "V\u00e4st\u00e4r\u00e4kki",
      "sv": "S\u00e4des\u00e4rla",
      "en": "White Wagtail"
    },
    "url": "http:\/\/atlas3.lintuatlas.fi\/0\/lajikuvat\/200\/Motacilla%20alba.jpg"
  },
  {
    "name": {
      "la": "Bombycilla garrulus",
      "fi": "Tilhi",
      "sv": "Sidensvans",
      "en": "Waxwing"
    },
    "url": "http:\/\/atlas3.lintuatlas.fi\/0\/lajikuvat\/200\/Bombycilla%20garrulus.jpg"
  },
  {
    "name": {
      "la": "Cinclus cinclus",
      "fi": "Koskikara",
      "sv": "Str\u00f6mstare",
      "en": "Dipper"
    },
    "url": "http:\/\/atlas3.lintuatlas.fi\/0\/lajikuvat\/200\/Cinclus%20cinclus.jpg"
  },
  {
    "name": {
      "la": "Troglodytes troglodytes",
      "fi": "Peukaloinen",
      "sv": "G\u00e4rdsmyg",
      "en": "Wren"
    },
    "url": "http:\/\/atlas3.lintuatlas.fi\/0\/lajikuvat\/200\/Troglodytes%20troglodytes.jpg"
  },
  {
    "name": {
      "la": "Prunella modularis",
      "fi": "Rautiainen",
      "sv": "J\u00e4rnsparv",
      "en": "Dunnock"
    },
    "url": "http:\/\/atlas3.lintuatlas.fi\/0\/lajikuvat\/200\/Prunella%20modularis.jpg"
  },
  {
    "name": {
      "la": "Erithacus rubecula",
      "fi": "Punarinta",
      "sv": "R\u00f6dhake",
      "en": "Robin"
    },
    "url": "http:\/\/atlas3.lintuatlas.fi\/0\/lajikuvat\/200\/Erithacus%20rubecula.jpg"
  },
  {
    "name": {
      "la": "Luscinia luscinia",
      "fi": "Satakieli",
      "sv": "N\u00e4ktergal",
      "en": "Thrush Nightingale"
    },
    "url": "http:\/\/atlas3.lintuatlas.fi\/0\/lajikuvat\/200\/Luscinia%20luscinia.jpg"
  },
  {
    "name": {
      "la": "Luscinia svecica",
      "fi": "Sinirinta",
      "sv": "Bl\u00e5hake",
      "en": "Bluethroat"
    },
    "url": "http:\/\/atlas3.lintuatlas.fi\/0\/lajikuvat\/200\/Luscinia%20svecica.jpg"
  },
  {
    "name": {
      "la": "Tarsiger cyanurus",
      "fi": "Sinipyrst\u00f6",
      "sv": "Bl\u00e5stj\u00e4rt",
      "en": "Red-flanked Bluetail"
    },
    "url": "http:\/\/atlas3.lintuatlas.fi\/0\/lajikuvat\/200\/Tarsiger%20cyanurus.jpg"
  },
  {
    "name": {
      "la": "Phoenicurus ochruros",
      "fi": "Mustalepp\u00e4lintu",
      "sv": "Svart r\u00f6dstj\u00e4rt",
      "en": "Black Redstart"
    },
    "url": "http:\/\/atlas3.lintuatlas.fi\/0\/lajikuvat\/200\/Phoenicurus%20ochruros.jpg"
  },
  {
    "name": {
      "la": "Phoenicurus phoenicurus",
      "fi": "Lepp\u00e4lintu",
      "sv": "R\u00f6dstj\u00e4rt",
      "en": "Redstart"
    },
    "url": "http:\/\/atlas3.lintuatlas.fi\/0\/lajikuvat\/200\/Phoenicurus%20phoenicurus.jpg"
  },
  {
    "name": {
      "la": "Saxicola rubetra",
      "fi": "Pensastasku",
      "sv": "Buskskv\u00e4tta",
      "en": "Whinchat"
    },
    "url": "http:\/\/atlas3.lintuatlas.fi\/0\/lajikuvat\/200\/Saxicola%20rubetra.jpg"
  },
  {
    "name": {
      "la": "Saxicola torquatus",
      "fi": "Mustap\u00e4\u00e4tasku",
      "sv": "Svarthakad buskskv\u00e4tta",
      "en": "Stonechat"
    },
    "url": "http:\/\/atlas3.lintuatlas.fi\/0\/lajikuvat\/200\/Saxicola%20torquatus.jpg"
  },
  {
    "name": {
      "la": "Oenanthe oenanthe",
      "fi": "Kivitasku",
      "sv": "Stenskv\u00e4tta",
      "en": "Wheatear"
    },
    "url": "http:\/\/atlas3.lintuatlas.fi\/0\/lajikuvat\/200\/Oenanthe%20oenanthe.jpg"
  },
  {
    "name": {
      "la": "Turdus torquatus",
      "fi": "Sepelrastas",
      "sv": "Ringtrast",
      "en": "Ring Ouzel"
    },
    "url": "http:\/\/atlas3.lintuatlas.fi\/0\/lajikuvat\/200\/Turdus%20torquatus.jpg"
  },
  {
    "name": {
      "la": "Turdus merula",
      "fi": "Mustarastas",
      "sv": "Koltrast",
      "en": "Blackbird"
    },
    "url": "http:\/\/atlas3.lintuatlas.fi\/0\/lajikuvat\/200\/Turdus%20merula.jpg"
  },
  {
    "name": {
      "la": "Turdus pilaris",
      "fi": "R\u00e4k\u00e4ttirastas",
      "sv": "Bj\u00f6rktrast",
      "en": "Fieldfare"
    },
    "url": "http:\/\/atlas3.lintuatlas.fi\/0\/lajikuvat\/200\/Turdus%20pilaris.jpg"
  },
  {
    "name": {
      "la": "Turdus philomelos",
      "fi": "Laulurastas",
      "sv": "Taltrast",
      "en": "Song Thrush"
    },
    "url": "http:\/\/atlas3.lintuatlas.fi\/0\/lajikuvat\/200\/Turdus%20philomelos.jpg"
  },
  {
    "name": {
      "la": "Turdus iliacus",
      "fi": "Punakylkirastas",
      "sv": "R\u00f6dvingetrast",
      "en": "Redwing"
    },
    "url": "http:\/\/atlas3.lintuatlas.fi\/0\/lajikuvat\/200\/Turdus%20iliacus.jpg"
  },
  {
    "name": {
      "la": "Turdus viscivorus",
      "fi": "Kulorastas",
      "sv": "Dubbeltrast",
      "en": "Mistle Thrush"
    },
    "url": "http:\/\/atlas3.lintuatlas.fi\/0\/lajikuvat\/200\/Turdus%20viscivorus.jpg"
  },
  {
    "name": {
      "la": "Locustella naevia",
      "fi": "Pensassirkkalintu",
      "sv": "Gr\u00e4shopps\u00e5ngare",
      "en": "Grasshopper Warbler"
    },
    "url": "http:\/\/atlas3.lintuatlas.fi\/0\/lajikuvat\/200\/Locustella%20naevia.jpg"
  },
  {
    "name": {
      "la": "Locustella fluviatilis",
      "fi": "Viitasirkkalintu",
      "sv": "Flods\u00e5ngare",
      "en": "River Warbler"
    },
    "url": "http:\/\/atlas3.lintuatlas.fi\/0\/lajikuvat\/200\/Locustella%20fluviatilis.jpg"
  },
  {
    "name": {
      "la": "Locustella luscinioides",
      "fi": "Ruokosirkkalintu",
      "sv": "Vass\u00e5ngare",
      "en": "Savi's Warbler"
    },
    "url": "http:\/\/atlas3.lintuatlas.fi\/0\/lajikuvat\/200\/Locustella%20luscinioides.jpg"
  },
  {
    "name": {
      "la": "Acrocephalus schoenobaenus",
      "fi": "Ruokokerttunen",
      "sv": "S\u00e4vs\u00e5ngare",
      "en": "Sedge Warbler"
    },
    "url": "http:\/\/atlas3.lintuatlas.fi\/0\/lajikuvat\/200\/Acrocephalus%20schoenobaenus.jpg"
  },
  {
    "name": {
      "la": "Acrocephalus scirpaceus",
      "fi": "Rytikerttunen",
      "sv": "R\u00f6rs\u00e5ngare",
      "en": "Reed Warbler"
    },
    "url": "http:\/\/atlas3.lintuatlas.fi\/0\/lajikuvat\/200\/Acrocephalus%20scirpaceus.jpg"
  },
  {
    "name": {
      "la": "Acrocephalus palustris",
      "fi": "Luhtakerttunen",
      "sv": "K\u00e4rrs\u00e5ngare",
      "en": "Marsh Warbler"
    },
    "url": "http:\/\/atlas3.lintuatlas.fi\/0\/lajikuvat\/200\/Acrocephalus%20palustris.jpg"
  },
  {
    "name": {
      "la": "Acrocephalus dumetorum",
      "fi": "Viitakerttunen",
      "sv": "Busks\u00e5ngare",
      "en": "Blyth's Reed Warbler"
    },
    "url": "http:\/\/atlas3.lintuatlas.fi\/0\/lajikuvat\/200\/Acrocephalus%20dumetorum.jpg"
  },
  {
    "name": {
      "la": "Acrocephalus arundinaceus",
      "fi": "Rastaskerttunen",
      "sv": "Trasts\u00e5ngare",
      "en": "Great Reed Warbler"
    },
    "url": "http:\/\/atlas3.lintuatlas.fi\/0\/lajikuvat\/200\/Acrocephalus%20arundinaceus.jpg"
  },
  {
    "name": {
      "la": "Hippolais caligata",
      "fi": "Pikkukultarinta",
      "sv": "St\u00e4pps\u00e5ngare",
      "en": "Booted Warbler"
    },
    "url": "http:\/\/atlas3.lintuatlas.fi\/0\/lajikuvat\/200\/Hippolais%20caligata.jpg"
  },
  {
    "name": {
      "la": "Hippolais icterina",
      "fi": "Kultarinta",
      "sv": "H\u00e4rms\u00e5ngare",
      "en": "Icterine Warbler"
    },
    "url": "http:\/\/atlas3.lintuatlas.fi\/0\/lajikuvat\/200\/Hippolais%20icterina.jpg"
  },
  {
    "name": {
      "la": "Sylvia atricapilla",
      "fi": "Mustap\u00e4\u00e4kerttu",
      "sv": "Svarth\u00e4tta",
      "en": "Blackcap"
    },
    "url": "http:\/\/atlas3.lintuatlas.fi\/0\/lajikuvat\/200\/Sylvia%20atricapilla.jpg"
  },
  {
    "name": {
      "la": "Sylvia borin",
      "fi": "Lehtokerttu",
      "sv": "Tr\u00e4dg\u00e5rdss\u00e5ngare",
      "en": "Garden Warbler"
    },
    "url": "http:\/\/atlas3.lintuatlas.fi\/0\/lajikuvat\/200\/Sylvia%20borin.jpg"
  },
  {
    "name": {
      "la": "Sylvia nisoria",
      "fi": "Kirjokerttu",
      "sv": "H\u00f6ks\u00e5ngare",
      "en": "Barred Warbler"
    },
    "url": "http:\/\/atlas3.lintuatlas.fi\/0\/lajikuvat\/200\/Sylvia%20nisoria.jpg"
  },
  {
    "name": {
      "la": "Sylvia curruca",
      "fi": "Hernekerttu",
      "sv": "\u00c4rts\u00e5ngare",
      "en": "Lesser Whitethroat"
    },
    "url": "http:\/\/atlas3.lintuatlas.fi\/0\/lajikuvat\/200\/Sylvia%20curruca.jpg"
  },
  {
    "name": {
      "la": "Sylvia communis",
      "fi": "Pensaskerttu",
      "sv": "T\u00f6rns\u00e5ngare",
      "en": "Whitethroat"
    },
    "url": "http:\/\/atlas3.lintuatlas.fi\/0\/lajikuvat\/200\/Sylvia%20communis.jpg"
  },
  {
    "name": {
      "la": "Phylloscopus trochiloides",
      "fi": "Id\u00e4nuunilintu",
      "sv": "Lunds\u00e5ngare",
      "en": "Greenish Warbler"
    },
    "url": "http:\/\/atlas3.lintuatlas.fi\/0\/lajikuvat\/200\/Phylloscopus%20trochiloides.jpg"
  },
  {
    "name": {
      "la": "Phylloscopus borealis",
      "fi": "Lapinuunilintu",
      "sv": "Nords\u00e5ngare",
      "en": "Arctic Warbler"
    },
    "url": "http:\/\/atlas3.lintuatlas.fi\/0\/lajikuvat\/200\/Phylloscopus%20borealis.jpg"
  },
  {
    "name": {
      "la": "Phylloscopus sibilatrix",
      "fi": "Siritt\u00e4j\u00e4",
      "sv": "Gr\u00f6ns\u00e5ngare",
      "en": "Wood Warbler"
    },
    "url": "http:\/\/atlas3.lintuatlas.fi\/0\/lajikuvat\/200\/Phylloscopus%20sibilatrix.jpg"
  },
  {
    "name": {
      "la": "Phylloscopus collybita",
      "fi": "Tiltaltti",
      "sv": "Grans\u00e5ngare",
      "en": "Chiffchaff"
    },
    "url": "http:\/\/atlas3.lintuatlas.fi\/0\/lajikuvat\/200\/Phylloscopus%20collybita.jpg"
  },
  {
    "name": {
      "la": "Phylloscopus trochilus",
      "fi": "Pajulintu",
      "sv": "L\u00f6vs\u00e5ngare",
      "en": "Willow Warbler"
    },
    "url": "http:\/\/atlas3.lintuatlas.fi\/0\/lajikuvat\/200\/Phylloscopus%20trochilus.jpg"
  },
  {
    "name": {
      "la": "Regulus regulus",
      "fi": "Hippi\u00e4inen",
      "sv": "Kungsf\u00e5gel",
      "en": "Goldcrest"
    },
    "url": "http:\/\/atlas3.lintuatlas.fi\/0\/lajikuvat\/200\/Regulus%20regulus.jpg"
  },
  {
    "name": {
      "la": "Muscicapa striata",
      "fi": "Harmaasieppo",
      "sv": "Gr\u00e5 flugsnappare",
      "en": "Spotted Flycatcher"
    },
    "url": "http:\/\/atlas3.lintuatlas.fi\/0\/lajikuvat\/200\/Muscicapa%20striata.jpg"
  },
  {
    "name": {
      "la": "Ficedula parva",
      "fi": "Pikkusieppo",
      "sv": "Mindre flugsnappare",
      "en": "Red-breasted Flycatcher"
    },
    "url": "http:\/\/atlas3.lintuatlas.fi\/0\/lajikuvat\/200\/Ficedula%20parva.jpg"
  },
  {
    "name": {
      "la": "Ficedula hypoleuca",
      "fi": "Kirjosieppo",
      "sv": "Svartvit flugsnappare",
      "en": "Pied Flycatcher"
    },
    "url": "http:\/\/atlas3.lintuatlas.fi\/0\/lajikuvat\/200\/Ficedula%20hypoleuca.jpg"
  },
  {
    "name": {
      "la": "Panurus biarmicus",
      "fi": "Viiksitimali",
      "sv": "Sk\u00e4ggmes",
      "en": "Bearded Tit"
    },
    "url": "http:\/\/atlas3.lintuatlas.fi\/0\/lajikuvat\/200\/Panurus%20biarmicus.jpg"
  },
  {
    "name": {
      "la": "Aegithalos caudatus",
      "fi": "Pyrst\u00f6tiainen",
      "sv": "Stj\u00e4rtmes",
      "en": "Long-tailed Tit"
    },
    "url": "http:\/\/atlas3.lintuatlas.fi\/0\/lajikuvat\/200\/Aegithalos%20caudatus.jpg"
  },
  {
    "name": {
      "la": "Parus montanus",
      "fi": "H\u00f6m\u00f6tiainen",
      "sv": "Talltita",
      "en": "Willow Tit"
    },
    "url": "http:\/\/atlas3.lintuatlas.fi\/0\/lajikuvat\/200\/Parus%20montanus.jpg"
  },
  {
    "name": {
      "la": "Parus cinctus",
      "fi": "Lapintiainen",
      "sv": "Lappmes",
      "en": "Siberian Tit"
    },
    "url": "http:\/\/atlas3.lintuatlas.fi\/0\/lajikuvat\/200\/Parus%20cinctus.jpg"
  },
  {
    "name": {
      "la": "Parus cristatus",
      "fi": "T\u00f6yht\u00f6tiainen",
      "sv": "Tofsmes",
      "en": "Crested Tit"
    },
    "url": "http:\/\/atlas3.lintuatlas.fi\/0\/lajikuvat\/200\/Parus%20cristatus.jpg"
  },
  {
    "name": {
      "la": "Parus ater",
      "fi": "Kuusitiainen",
      "sv": "Svartmes",
      "en": "Coal Tit"
    },
    "url": "http:\/\/atlas3.lintuatlas.fi\/0\/lajikuvat\/200\/Parus%20ater.jpg"
  },
  {
    "name": {
      "la": "Parus caeruleus",
      "fi": "Sinitiainen",
      "sv": "Bl\u00e5mes",
      "en": "Blue Tit"
    },
    "url": "http:\/\/atlas3.lintuatlas.fi\/0\/lajikuvat\/200\/Parus%20caeruleus.jpg"
  },
  {
    "name": {
      "la": "Parus cyanus",
      "fi": "Valkop\u00e4\u00e4tiainen",
      "sv": "Azurmes",
      "en": "Azure Tit"
    },
    "url": "http:\/\/atlas3.lintuatlas.fi\/0\/lajikuvat\/200\/Parus%20cyanus.jpg"
  },
  {
    "name": {
      "la": "Parus major",
      "fi": "Talitiainen",
      "sv": "Talgoxe",
      "en": "Great Tit"
    },
    "url": "http:\/\/atlas3.lintuatlas.fi\/0\/lajikuvat\/200\/Parus%20major.jpg"
  },
  {
    "name": {
      "la": "Remiz pendulinus",
      "fi": "Pussitiainen",
      "sv": "Pungmes",
      "en": "Penduline Tit"
    },
    "url": "http:\/\/atlas3.lintuatlas.fi\/0\/lajikuvat\/200\/Remiz%20pendulinus.jpg"
  },
  {
    "name": {
      "la": "Sitta europaea",
      "fi": "P\u00e4hkin\u00e4nakkeli",
      "sv": "N\u00f6tv\u00e4cka",
      "en": "Nuthatch"
    },
    "url": "http:\/\/atlas3.lintuatlas.fi\/0\/lajikuvat\/200\/Sitta%20europaea.jpg"
  },
  {
    "name": {
      "la": "Certhia familiaris",
      "fi": "Puukiipij\u00e4",
      "sv": "Tr\u00e4dkrypare",
      "en": "Treecreeper"
    },
    "url": "http:\/\/atlas3.lintuatlas.fi\/0\/lajikuvat\/200\/Certhia%20familiaris.jpg"
  },
  {
    "name": {
      "la": "Oriolus oriolus",
      "fi": "Kuhankeitt\u00e4j\u00e4",
      "sv": "Sommargylling",
      "en": "Golden Oriole"
    },
    "url": "http:\/\/atlas3.lintuatlas.fi\/0\/lajikuvat\/200\/Oriolus%20oriolus.jpg"
  },
  {
    "name": {
      "la": "Lanius collurio",
      "fi": "Pikkulepink\u00e4inen",
      "sv": "T\u00f6rnskata",
      "en": "Red-backed Shrike"
    },
    "url": "http:\/\/atlas3.lintuatlas.fi\/0\/lajikuvat\/200\/Lanius%20collurio.jpg"
  },
  {
    "name": {
      "la": "Lanius excubitor",
      "fi": "Isolepink\u00e4inen",
      "sv": "Varf\u00e5gel",
      "en": "Great Grey Shrike"
    },
    "url": "http:\/\/atlas3.lintuatlas.fi\/0\/lajikuvat\/200\/Lanius%20excubitor.jpg"
  },
  {
    "name": {
      "la": "Garrulus glandarius",
      "fi": "N\u00e4rhi",
      "sv": "N\u00f6tskrika",
      "en": "Jay"
    },
    "url": "http:\/\/atlas3.lintuatlas.fi\/0\/lajikuvat\/200\/Garrulus%20glandarius.jpg"
  },
  {
    "name": {
      "la": "Perisoreus infaustus",
      "fi": "Kuukkeli",
      "sv": "Lavskrika",
      "en": "Siberian Jay"
    },
    "url": "http:\/\/atlas3.lintuatlas.fi\/0\/lajikuvat\/200\/Perisoreus%20infaustus.jpg"
  },
  {
    "name": {
      "la": "Pica pica",
      "fi": "Harakka",
      "sv": "Skata",
      "en": "Magpie"
    },
    "url": "http:\/\/atlas3.lintuatlas.fi\/0\/lajikuvat\/200\/Pica%20pica.jpg"
  },
  {
    "name": {
      "la": "Nucifraga caryocatactes",
      "fi": "P\u00e4hkin\u00e4hakki",
      "sv": "N\u00f6tkr\u00e5ka",
      "en": "Nutcracker"
    },
    "url": "http:\/\/atlas3.lintuatlas.fi\/0\/lajikuvat\/200\/Nucifraga%20caryocatactes.jpg"
  },
  {
    "name": {
      "la": "Corvus monedula",
      "fi": "Naakka",
      "sv": "Kaja",
      "en": "Jackdaw"
    },
    "url": "http:\/\/atlas3.lintuatlas.fi\/0\/lajikuvat\/200\/Corvus%20monedula.jpg"
  },
  {
    "name": {
      "la": "Corvus frugilegus",
      "fi": "Mustavaris",
      "sv": "R\u00e5ka",
      "en": "Rook"
    },
    "url": "http:\/\/atlas3.lintuatlas.fi\/0\/lajikuvat\/200\/Corvus%20frugilegus.jpg"
  },
  {
    "name": {
      "la": "Corvus corone",
      "fi": "Varis",
      "sv": "Kr\u00e5ka",
      "en": "Hooded Crow"
    },
    "url": "http:\/\/atlas3.lintuatlas.fi\/0\/lajikuvat\/200\/Corvus%20corone.jpg"
  },
  {
    "name": {
      "la": "Corvus corax",
      "fi": "Korppi",
      "sv": "Korp",
      "en": "Raven"
    },
    "url": "http:\/\/atlas3.lintuatlas.fi\/0\/lajikuvat\/200\/Corvus%20corax.jpg"
  },
  {
    "name": {
      "la": "Sturnus vulgaris",
      "fi": "Kottarainen",
      "sv": "Stare",
      "en": "Starling"
    },
    "url": "http:\/\/atlas3.lintuatlas.fi\/0\/lajikuvat\/200\/Sturnus%20vulgaris.jpg"
  },
  {
    "name": {
      "la": "Passer domesticus",
      "fi": "Varpunen",
      "sv": "Gr\u00e5sparv",
      "en": "House Sparrow"
    },
    "url": "http:\/\/atlas3.lintuatlas.fi\/0\/lajikuvat\/200\/Passer%20domesticus.jpg"
  },
  {
    "name": {
      "la": "Passer montanus",
      "fi": "Pikkuvarpunen",
      "sv": "Pilfink",
      "en": "Tree Sparrow"
    },
    "url": "http:\/\/atlas3.lintuatlas.fi\/0\/lajikuvat\/200\/Passer%20montanus.jpg"
  },
  {
    "name": {
      "la": "Fringilla coelebs",
      "fi": "Peippo",
      "sv": "Bofink",
      "en": "Chaffinch"
    },
    "url": "http:\/\/atlas3.lintuatlas.fi\/0\/lajikuvat\/200\/Fringilla%20coelebs.jpg"
  },
  {
    "name": {
      "la": "Fringilla montifringilla",
      "fi": "J\u00e4rripeippo",
      "sv": "Bergfink",
      "en": "Brambling"
    },
    "url": "http:\/\/atlas3.lintuatlas.fi\/0\/lajikuvat\/200\/Fringilla%20montifringilla.jpg"
  },
  {
    "name": {
      "la": "Serinus serinus",
      "fi": "Keltahemppo",
      "sv": "Gulh\u00e4mpling",
      "en": "Serin"
    },
    "url": "http:\/\/atlas3.lintuatlas.fi\/0\/lajikuvat\/200\/Serinus%20serinus.jpg"
  },
  {
    "name": {
      "la": "Carduelis chloris",
      "fi": "Viherpeippo",
      "sv": "Gr\u00f6nfink",
      "en": "Greenfinch"
    },
    "url": "http:\/\/atlas3.lintuatlas.fi\/0\/lajikuvat\/200\/Carduelis%20chloris.jpg"
  },
  {
    "name": {
      "la": "Carduelis carduelis",
      "fi": "Tikli",
      "sv": "Steglits",
      "en": "Goldfinch"
    },
    "url": "http:\/\/atlas3.lintuatlas.fi\/0\/lajikuvat\/200\/Carduelis%20carduelis.jpg"
  },
  {
    "name": {
      "la": "Carduelis spinus",
      "fi": "Vihervarpunen",
      "sv": "Gr\u00f6nsiska",
      "en": "Siskin"
    },
    "url": "http:\/\/atlas3.lintuatlas.fi\/0\/lajikuvat\/200\/Carduelis%20spinus.jpg"
  },
  {
    "name": {
      "la": "Carduelis cannabina",
      "fi": "Hemppo",
      "sv": "H\u00e4mpling",
      "en": "Linnet"
    },
    "url": "http:\/\/atlas3.lintuatlas.fi\/0\/lajikuvat\/200\/Carduelis%20cannabina.jpg"
  },
  {
    "name": {
      "la": "Carduelis flavirostris",
      "fi": "Vuorihemppo",
      "sv": "Vinterh\u00e4mpling",
      "en": "Twite"
    },
    "url": "http:\/\/atlas3.lintuatlas.fi\/0\/lajikuvat\/200\/Carduelis%20flavirostris.jpg"
  },
  {
    "name": {
      "la": "Carduelis flammea",
      "fi": "Urpiainen",
      "sv": "Gr\u00e5siska",
      "en": "Redpoll"
    },
    "url": "http:\/\/atlas3.lintuatlas.fi\/0\/lajikuvat\/200\/Carduelis%20flammea.jpg"
  },
  {
    "name": {
      "la": "Carduelis hornemanni",
      "fi": "Tundraurpiainen",
      "sv": "Sn\u00f6siska",
      "en": "Arctic Redpoll"
    },
    "url": "http:\/\/atlas3.lintuatlas.fi\/0\/lajikuvat\/200\/Carduelis%20hornemanni.jpg"
  },
  {
    "name": {
      "la": "Loxia leucoptera",
      "fi": "Kirjosiipik\u00e4pylintu",
      "sv": "B\u00e4ndelkorsn\u00e4bb",
      "en": "Two-barred Crossbill"
    },
    "url": "http:\/\/atlas3.lintuatlas.fi\/0\/lajikuvat\/200\/Loxia%20leucoptera.jpg"
  },
  {
    "name": {
      "la": "Loxia curvirostra",
      "fi": "Pikkuk\u00e4pylintu",
      "sv": "Mindre korsn\u00e4bb",
      "en": "Crossbill"
    },
    "url": "http:\/\/atlas3.lintuatlas.fi\/0\/lajikuvat\/200\/Loxia%20curvirostra.jpg"
  },
  {
    "name": {
      "la": "Loxia pytyopsittacus",
      "fi": "Isok\u00e4pylintu",
      "sv": "St\u00f6rre korsn\u00e4bb",
      "en": "Parrot Crossbill"
    },
    "url": "http:\/\/atlas3.lintuatlas.fi\/0\/lajikuvat\/200\/Loxia%20pytyopsittacus.jpg"
  },
  {
    "name": {
      "la": "Carpodacus erythrinus",
      "fi": "Punavarpunen",
      "sv": "Rosenfink",
      "en": "Scarlet Rosefinch"
    },
    "url": "http:\/\/atlas3.lintuatlas.fi\/0\/lajikuvat\/200\/Carpodacus%20erythrinus.jpg"
  },
  {
    "name": {
      "la": "Pinicola enucleator",
      "fi": "Taviokuurna",
      "sv": "Tallbit",
      "en": "Pine Grosbeak"
    },
    "url": "http:\/\/atlas3.lintuatlas.fi\/0\/lajikuvat\/200\/Pinicola%20enucleator.jpg"
  },
  {
    "name": {
      "la": "Pyrrhula pyrrhula",
      "fi": "Punatulkku",
      "sv": "Domherre",
      "en": "Bullfinch"
    },
    "url": "http:\/\/atlas3.lintuatlas.fi\/0\/lajikuvat\/200\/Pyrrhula%20pyrrhula.jpg"
  },
  {
    "name": {
      "la": "Coccothraustes coccothraustes",
      "fi": "Nokkavarpunen",
      "sv": "Stenkn\u00e4ck",
      "en": "Hawfinch"
    },
    "url": "http:\/\/atlas3.lintuatlas.fi\/0\/lajikuvat\/200\/Coccothraustes%20coccothraustes.jpg"
  },
  {
    "name": {
      "la": "Calcarius lapponicus",
      "fi": "Lapinsirkku",
      "sv": "Lappsparv",
      "en": "Lapland Bunting"
    },
    "url": "http:\/\/atlas3.lintuatlas.fi\/0\/lajikuvat\/200\/Calcarius%20lapponicus.jpg"
  },
  {
    "name": {
      "la": "Plectrophenax nivalis",
      "fi": "Pulmunen",
      "sv": "Sn\u00f6sparv",
      "en": "Snow Bunting"
    },
    "url": "http:\/\/atlas3.lintuatlas.fi\/0\/lajikuvat\/200\/Plectrophenax%20nivalis.jpg"
  },
  {
    "name": {
      "la": "Emberiza citrinella",
      "fi": "Keltasirkku",
      "sv": "Gulsparv",
      "en": "Yellowhammer"
    },
    "url": "http:\/\/atlas3.lintuatlas.fi\/0\/lajikuvat\/200\/Emberiza%20citrinella.jpg"
  },
  {
    "name": {
      "la": "Emberiza hortulana",
      "fi": "Peltosirkku",
      "sv": "Ortolansparv",
      "en": "Ortolan Bunting"
    },
    "url": "http:\/\/atlas3.lintuatlas.fi\/0\/lajikuvat\/200\/Emberiza%20hortulana.jpg"
  },
  {
    "name": {
      "la": "Emberiza rustica",
      "fi": "Pohjansirkku",
      "sv": "Videsparv",
      "en": "Rustic Bunting"
    },
    "url": "http:\/\/atlas3.lintuatlas.fi\/0\/lajikuvat\/200\/Emberiza%20rustica.jpg"
  },
  {
    "name": {
      "la": "Emberiza pusilla",
      "fi": "Pikkusirkku",
      "sv": "Dv\u00e4rgsparv",
      "en": "Little Bunting"
    },
    "url": "http:\/\/atlas3.lintuatlas.fi\/0\/lajikuvat\/200\/Emberiza%20pusilla.jpg"
  },
  {
    "name": {
      "la": "Emberiza aureola",
      "fi": "Kultasirkku",
      "sv": "Gyllensparv",
      "en": "Yellow-breasted Bunting"
    },
    "url": "http:\/\/atlas3.lintuatlas.fi\/0\/lajikuvat\/200\/Emberiza%20aureola.jpg"
  },
  {
    "name": {
      "la": "Emberiza schoeniclus",
      "fi": "Pajusirkku",
      "sv": "S\u00e4vsparv",
      "en": "Reed Bunting"
    },
    "url": "http:\/\/atlas3.lintuatlas.fi\/0\/lajikuvat\/200\/Emberiza%20schoeniclus.jpg"
  }
]