[
  {
    "name": {
      "fi": "Linnut",
      "en": "Birds"
    },
    "id" : "birds",
    "path": "data/games/birds.json"
  },
  {
    "name": {
      "fi": "Liput",
      "en": "Flags"
    },
    "id": "flags",
    "path": "data/games/flags.json"
  },
  {
    "name": {
      "fi": "Kalat",
      "en": "Fishes"
    },
    "id": "fishes",
    "path": "data/games/fishes.json"
  }
]
